Updating: A Set of Bayesian Notes
…
count(data1, y, x1) %>%
  group_by(x1) %>%
  mutate(p = n / sum(n)) %>%
  select(-n) %>% 
  spread(y, p, fill = 0)
#> # A tibble: 7 x 3
#> # Groups:   x1 [7]
#>      x1   `0`   `1`
#>   <dbl> <dbl> <dbl>
#> 1    1.    1.    0.
#> 2    2.    1.    0.
#> 3    3.    1.    0.
#> 4    5.    0.    1.
#> 5    6.    0.    1.
#> 6   10.    0.    1.
#> # ... with 1 more row
…
The following generated data is an example of quasi-separation.[^quasi-separation]

data2 <- tibble(
  y = c(0, 0, 0, 0, 1, 1, 1, 1, 1, 1),
  x1 = c(1, 2, 3, 3, 3, 4, 5, 6, 10, 11),
  x2 = c(3, 0, -1, 4, 1, 0, 2, 7, 3, 4)
)

count(data2, y, x1) %>%
  group_by(x1) %>%
  mutate(p = n / sum(n)) %>%
  select(-n) %>% 
  spread(y, p, fill = 0)
#> # A tibble: 8 x 3
#> # Groups:   x1 [8]
#>      x1   `0`   `1`
#>   <dbl> <dbl> <dbl>
#> 1    1. 1.00  0.   
#> 2    2. 1.00  0.   
#> 3    3. 0.667 0.333
#> 4    4. 0.    1.00 
#> 5    5. 0.    1.00 
#> 6    6. 0.    1.00 
#> # ... with 2 more rows
…
