14 Separation | Updating: A Set of Bayesian Notes
…
complete separation: the predictor perfectly predicts both 0’s and 1’s.

quasi-complete separation: the predictor perfectly predicts either 0’s or 1’s.

overlap: the predictor does not perfectly predict either 0’s or 1’s.

Both complete separation and quasi-complete separation cause problems for binomial maximum likelihood estimators.

14.2 Complete Separation

The following data is an example of data with complete separation.10

CompleteSeparation
#> # A tibble: 8 x 3
#>       y    x1    x2
#>   <dbl> <dbl> <dbl>
#> 1     0     1     3
#> 2     0     2     2
#> 3     0     3    -1
#> 4     0     3    -1
#> 5     1     5     2
#> 6     1     6     4
#> # ... with 2 more rows

count(CompleteSeparation, y, x1) %>%
  group_by(x1) %>%
  mutate(p = n / sum(n)) %>%
  select(-n) %>%
  spread(y, p, fill = 0)
#> # A tibble: 7 x 3
#> # Groups:   x1 [7]
#>      x1   `0`   `1`
#>   <dbl> <dbl> <dbl>
#> 1     1     1     0
#> 2     2     1     0
#> 3     3     1     0
#> 4     5     0     1
#> 5     6     0     1
#> 6    10     0     1
#> # ... with 1 more row
…
1
11
4

The variable x1 almost separates y.
When x1 < 3, y = 0, and when x1 > 3, y = 1.
Only when x1 = 3, does y takes values of both 0 and 1.

count(QuasiSeparation, y, x1) %>%
  group_by(x1) %>%
  mutate(p = n / sum(n)) %>%
  select(-n) %>%
  spread(y, p, fill = 0)
#> # A tibble: 8 x 3
#> # Groups:   x1 [8]
#>      x1   `0`   `1`
#>   <dbl> <dbl> <dbl>
#> 1     1 1     0    
#> 2     2 1     0    
#> 3     3 0.667 0.333
#> 4     4 0     1    
#> 5     5 0     1    
#> 6     6 0     1    
#> # ... with 2 more rows
…
